USER: 38 NEG done
USER: 87 NEG done
USER: 112 NEG done
USER: 158 NEG done
USER: 241 NEG done
USER: 242 NEG done
USER: 243 NEG done
resume 7 unack tasks
USER: 38 NEG done
USER: 87 NEG done
USER: 112 NEG done
USER: 158 NEG done
USER: 241 NEG done
USER: 242 NEG done
USER: 243 NEG done
resume 7 unack tasks
USER: 38 NEG done
USER: 87 NEG done
USER: 112 NEG done
USER: 158 NEG done
USER: 241 NEG done
USER: 242 NEG done
USER: 243 NEG done
